{
  "directed": false,
  "multigraph": false,
  "graph": {},
  "nodes": [
    {
      "id": "This module visualization expects network_graph.json in the same directory as the HTML.",
      "attr_dict": {
        "graph_type": ""
      }
    },
    {
      "id": "Please export your graph data to this file.",
      "attr_dict": {
        "graph_type": ""
      }
    }
  ],
  "links": [
    {
      "source" : "This module visualization expects network_graph.json in the same directory as the HTML.",
      "target":  "Please export your graph data to this file."
    }
  ]
}
